a   a
i   i
u   ɯ
e   e
o   o
k   k
s   s
t   t
n   n
h   h
m   m
y   j
r   ɾ
w   w
sh  ɕ
ch  tɕ 
ts  ts
f   ɸ
g   ɡ
z   dz
d   d
b   b
p   p
j   dʑ
ky  kʲ
gy  ɡʲ
ny  ɲ
hy  ç
my  mʲ
ry  ɾʲ
by  bʲ
py  pʲ
N   N
q   Q
